[
    {
        "_id": "5ee6ae65b01449cfa25fa5fa",
        "name": "Arroz de Mariscos para 2 pessoas",
        "description": "Arroz com camarão, lula, peixe, lagosta, e mexilhão, refogado com pimentões e cebola juliene, temperos e um leve toque de açafrão. Servidos na paellera. Rico em sabor e apresentação.",
        "img": "static/prato-arroz-grande.jpg",
        "thumbnail": "static/prato-arroz-marisco-peq.jpg",
        "status": {
            "code": 1,
            "text": "realizado"
        },
        "ingredients": [
            {
                "checked": false,
                "proportion": "1",
                "name": "cebola"
            },
            {
                "checked": false,
                "proportion": "2",
                "name": "dentes de alho"
            },
            {
                "checked": false,
                "proportion": "3",
                "name": "colheres de sopa de Azeite"
            },
            {
                "checked": false,
                "proportion": "4",
                "name": "tomates"
            },
            {
                "checked": false,
                "proportion": "2",
                "name": "pitadas de Sal"
            },
            {
                "checked": false,
                "proportion": "1",
                "name": "embalagem de marisco (mistura)"
            },
            {
                "checked": false,
                "proportion": "1",
                "name": "embalagem de camarão inteiro congelado"
            },
            {
                "checked": false,
                "proportion": "1",
                "name": "chávena de arroz"
            },
            {
                "checked": false,
                "proportion": "1",
                "name": "porção de coentros"
            }
        ],
        "preparation": {
            "estimatedMinutes": 25.0,
            "steps": [
                {
                    "name": "Passo 1",
                    "description": "Faça um refogado com o azeite a cebola e os dentes de alho bem picados. Esmague os tomates maduros sem pele e junte ao refogado. Tempere com sal. Deixe \"namorar\" durante alguns minutos.",
                    "completed": false
                },
                {
                    "name": "Passo 2",
                    "description": "Deixe a descongelar a embalagem de cocktail de marisco e delícias do mar, retire-as também do congelador e ponha-as de parte.",
                    "completed": false
                },
                {
                    "name": "Passo 3",
                    "description": "Junte os mariscos (as delícias ficam para mais tarde) ao refogado e mexa. Com o lume brando, tape o tacho e deixe \"namorar\" durante 15 minutos.",
                    "completed": false
                },
                {
                    "name": "Passo 4",
                    "description": "Junte água a tapar esta mistura e assim que ferver deite o arroz e mexa. Quando retomar a fervura, deixe cozer tapado durante 10 minutos, vá mexendo para não pegar.",
                    "completed": false
                },
                {
                    "name": "Passo 5",
                    "description": "Apague o lume, junte as delícias cortadas em cubinhos e polvilhe com coentros picados. Sirva de seguida.",
                    "completed": false
                },
                {
                    "name": "Passo 6",
                    "description": "Depois temos o Arroz de Marisco Tradicional que leva todo o tipo marisco, desde sapateira, lagosta, mexilhões e etc.",
                    "completed": false
                }
            ]
        }
    },
    {
        "_id": "5ee6b051b01449cfa25fa5fb",
        "name": "Moqueca Tropical",
        "description": "Escolha entre Camarão ou Peixe ou a combinação dos dois | De origem indígena. A moqueca é um cozido de peixe ou camarão ou com mistura de peixe e camarão com tomate, cebola, pimentões e cheiro-verde refogados. Leve toque de azeite de dendê e leite de coco natural. Na versão tropical, acrescentamos manga e abacaxi. Acompanha arroz branco, pirão de camarão e farofa de dendê",
        "img": "static/prato-moqueca-grande.jpg",
        "thumbnail": "static/prato-moqueca-peq.jpg",
        "status": {
            "code": 2,
            "text": "finalizado"
        },
        "ingredients": [
            {
                "checked": false,
                "proportion": "2kg",
                "name": "de robalo cortado em postas com couro"
            },
            {
                "checked": false,
                "proportion": "1",
                "name": "cabeça de alho"
            },
            {
                "checked": false,
                "proportion": "4",
                "name": "tomates grandes"
            },
            {
                "checked": false,
                "proportion": "100ml",
                "name": "de azeite de dendê"
            },
            {
                "checked": false,
                "proportion": "",
                "name": "Sal (à gosto)"
            },
            {
                "checked": false,
                "proportion": "",
                "name": "Pimenta do reino a gosto"
            },
            {
                "checked": false,
                "proportion": "",
                "name": "Espinhas e cabeça do robalo"
            },
            {
                "checked": false,
                "proportion": "4",
                "name": "bananas em fatias"
            },
            {
                "checked": false,
                "proportion": "1kg",
                "name": "de camarão descascado"
            }
        ],
        "preparation": {
            "estimatedMinutes": 25.0,
            "steps": [
                {
                    "completed": false,
                    "name": "Passo 1",
                    "description": "Prepare o caldo de peixe com as espinhas e cabeça"
                },
                {
                    "completed": false,
                    "name": "Passo 2",
                    "description": "Acrescente cebola, pimentão, tomate, alho, sal e pimenta ao caldo até apurar."
                },
                {
                    "completed": false,
                    "name": "Passo 3",
                    "description": "Coloque as bananas por baixo da terrine, intercale com o molho e o peixe."
                },
                {
                    "completed": false,
                    "name": "Passo 4",
                    "description": "Tempere com sal e pimenta."
                },
                {
                    "completed": false,
                    "name": "Passo 5",
                    "description": "Cubra com o molho já com o camarão."
                },
                {
                    "completed": false,
                    "name": "Passo 6",
                    "description": "Leve ao forno por 20 minutos."
                }
            ]
        }
    }
]